{
  "project_info": {
    "project_number": "19626810264",
    "firebase_url": "https://babyselfie-teste.firebaseio.com",
    "project_id": "babyselfie-teste",
    "storage_bucket": "babyselfie-teste.appspot.com"
  },
  "client": [
    {
      "client_info": {
        "mobilesdk_app_id": "1:19626810264:android:ef540678d48e7243",
        "android_client_info": {
          "package_name": "babyselfie.mobi.bot.babyselfie"
        }
      },
      "oauth_client": [
        {
          "client_id": "19626810264-mgg0jl218jen8b65ih5shd1fn3aevaen.apps.googleusercontent.com",
          "client_type": 3
        }
      ],
      "api_key": [
        {
          "current_key": "AIzaSyBBEz_I4R_Ime574XigiTyQYHvKP7Aewl0"
        }
      ],
      "services": {
        "analytics_service": {
          "status": 1
        },
        "appinvite_service": {
          "status": 1,
          "other_platform_oauth_client": []
        },
        "ads_service": {
          "status": 2
        }
      }
    }
  ],
  "configuration_version": "1"
}